^C:\USERS\VLADIMIR\DOCUMENTS\VISUAL STUDIO 2015\PROJECTS\BITOPERATIONS\BITOPERATIONS\BITOPERATIONS\BITOPERATIONS.CPP
/c /ZI /nologo /W3 /WX- /Od /Oy- /D WIN32 /D _DEBUG /D _CONSOLE /D _UNICODE /D UNICODE /Gm /EHsc /RTC1 /MDd /GS /fp:precise /Zc:wchar_t /Zc:forScope /Zc:inline /Fo"DEBUG\\" /Fd"DEBUG\VC140.PDB" /Gd /TP /analyze- C:\USERS\VLADIMIR\DOCUMENTS\VISUAL STUDIO 2015\PROJECTS\BITOPERATIONS\BITOPERATIONS\BITOPERATIONS\BITOPERATIONS.CPP
^C:\USERS\VLADIMIR\DOCUMENTS\VISUAL STUDIO 2015\PROJECTS\BITOPERATIONS\BITOPERATIONS\BITOPERATIONS\STDAFX.CPP
/c /ZI /nologo /W3 /WX- /Od /Oy- /D WIN32 /D _DEBUG /D _CONSOLE /D _UNICODE /D UNICODE /Gm /EHsc /RTC1 /MDd /GS /fp:precise /Zc:wchar_t /Zc:forScope /Zc:inline /Fo"DEBUG\\" /Fd"DEBUG\VC140.PDB" /Gd /TP /analyze- C:\USERS\VLADIMIR\DOCUMENTS\VISUAL STUDIO 2015\PROJECTS\BITOPERATIONS\BITOPERATIONS\BITOPERATIONS\STDAFX.CPP
^C:\USERS\VLADIMIR\DOCUMENTS\VISUAL STUDIO 2015\PROJECTS\BITOPERATIONS\BIT_OPERATIONS\BITOPERATIONS\BITOPERATIONS\BITOPERATIONS.CPP
/c /ZI /nologo /W3 /WX- /Od /Oy- /D WIN32 /D _DEBUG /D _CONSOLE /D _UNICODE /D UNICODE /Gm /EHsc /RTC1 /MDd /GS /fp:precise /Zc:wchar_t /Zc:forScope /Zc:inline /Fo"DEBUG\\" /Fd"DEBUG\VC140.PDB" /Gd /TP /analyze- C:\USERS\VLADIMIR\DOCUMENTS\VISUAL STUDIO 2015\PROJECTS\BITOPERATIONS\BIT_OPERATIONS\BITOPERATIONS\BITOPERATIONS\BITOPERATIONS.CPP
^C:\USERS\VLADIMIR\DOCUMENTS\VISUAL STUDIO 2015\PROJECTS\BITOPERATIONS\BIT_OPERATIONS\BITOPERATIONS\BITOPERATIONS\STDAFX.CPP
/c /ZI /nologo /W3 /WX- /Od /Oy- /D WIN32 /D _DEBUG /D _CONSOLE /D _UNICODE /D UNICODE /Gm /EHsc /RTC1 /MDd /GS /fp:precise /Zc:wchar_t /Zc:forScope /Zc:inline /Fo"DEBUG\\" /Fd"DEBUG\VC140.PDB" /Gd /TP /analyze- C:\USERS\VLADIMIR\DOCUMENTS\VISUAL STUDIO 2015\PROJECTS\BITOPERATIONS\BIT_OPERATIONS\BITOPERATIONS\BITOPERATIONS\STDAFX.CPP
^C:\USERS\VLADIMIR\DOCUMENTS\VISUAL STUDIO 2015\PROJECTS\BITOPERATIONS\BIT_OPERATIONS\BITOPERATIONS\BITOPERATIONS\MENU.CPP
/c /ZI /nologo /W3 /WX- /Od /Oy- /D WIN32 /D _DEBUG /D _CONSOLE /D _UNICODE /D UNICODE /Gm /EHsc /RTC1 /MDd /GS /fp:precise /Zc:wchar_t /Zc:forScope /Zc:inline /Fo"DEBUG\\" /Fd"DEBUG\VC140.PDB" /Gd /TP /analyze- C:\USERS\VLADIMIR\DOCUMENTS\VISUAL STUDIO 2015\PROJECTS\BITOPERATIONS\BIT_OPERATIONS\BITOPERATIONS\BITOPERATIONS\MENU.CPP
^C:\USERS\VLADIMIR\DOCUMENTS\VISUAL STUDIO 2015\PROJECTS\BITOPERATIONS\BIT_OPERATIONS\BITOPERATIONS\BITOPERATIONS\PROIZVEDENIE.CPP
/c /ZI /nologo /W3 /WX- /Od /Oy- /D WIN32 /D _DEBUG /D _CONSOLE /D _UNICODE /D UNICODE /Gm /EHsc /RTC1 /MDd /GS /fp:precise /Zc:wchar_t /Zc:forScope /Zc:inline /Fo"DEBUG\\" /Fd"DEBUG\VC140.PDB" /Gd /TP /analyze- C:\USERS\VLADIMIR\DOCUMENTS\VISUAL STUDIO 2015\PROJECTS\BITOPERATIONS\BIT_OPERATIONS\BITOPERATIONS\BITOPERATIONS\PROIZVEDENIE.CPP
^C:\USERS\VLADIMIR\DOCUMENTS\VISUAL STUDIO 2015\PROJECTS\BITOPERATIONS\BIT_OPERATIONS\BITOPERATIONS\BITOPERATIONS\SUMMA.CPP
/c /ZI /nologo /W3 /WX- /Od /Oy- /D WIN32 /D _DEBUG /D _CONSOLE /D _UNICODE /D UNICODE /Gm /EHsc /RTC1 /MDd /GS /fp:precise /Zc:wchar_t /Zc:forScope /Zc:inline /Fo"DEBUG\\" /Fd"DEBUG\VC140.PDB" /Gd /TP /analyze- C:\USERS\VLADIMIR\DOCUMENTS\VISUAL STUDIO 2015\PROJECTS\BITOPERATIONS\BIT_OPERATIONS\BITOPERATIONS\BITOPERATIONS\SUMMA.CPP
^C:\USERS\VLADIMIR\DOCUMENTS\VISUAL STUDIO 2015\PROJECTS\BITOPERATIONS\BIT_OPERATIONS\BITOPERATIONS\BITOPERATIONS\IS_NATURAL.CPP
/c /ZI /nologo /W3 /WX- /Od /Oy- /D WIN32 /D _DEBUG /D _CONSOLE /D _UNICODE /D UNICODE /Gm /EHsc /RTC1 /MDd /GS /fp:precise /Zc:wchar_t /Zc:forScope /Zc:inline /Fo"DEBUG\\" /Fd"DEBUG\VC140.PDB" /Gd /TP /analyze- C:\USERS\VLADIMIR\DOCUMENTS\VISUAL STUDIO 2015\PROJECTS\BITOPERATIONS\BIT_OPERATIONS\BITOPERATIONS\BITOPERATIONS\IS_NATURAL.CPP
^C:\USERS\Я\BIT_OPERATIONS\BITOPERATIONS\BITOPERATIONS\BITOPERATIONS.CPP
/c /ZI /nologo /W3 /WX- /Od /Oy- /D WIN32 /D _DEBUG /D _CONSOLE /D _UNICODE /D UNICODE /Gm /EHsc /RTC1 /MDd /GS /fp:precise /Zc:wchar_t /Zc:forScope /Zc:inline /Fo"DEBUG\\" /Fd"DEBUG\VC140.PDB" /Gd /TP /analyze- C:\USERS\Я\BIT_OPERATIONS\BITOPERATIONS\BITOPERATIONS\BITOPERATIONS.CPP
^C:\USERS\Я\BIT_OPERATIONS\BITOPERATIONS\BITOPERATIONS\IS_NATURAL.CPP
/c /ZI /nologo /W3 /WX- /Od /Oy- /D WIN32 /D _DEBUG /D _CONSOLE /D _UNICODE /D UNICODE /Gm /EHsc /RTC1 /MDd /GS /fp:precise /Zc:wchar_t /Zc:forScope /Zc:inline /Fo"DEBUG\\" /Fd"DEBUG\VC140.PDB" /Gd /TP /analyze- C:\USERS\Я\BIT_OPERATIONS\BITOPERATIONS\BITOPERATIONS\IS_NATURAL.CPP
^C:\USERS\Я\BIT_OPERATIONS\BITOPERATIONS\BITOPERATIONS\MENU.CPP
/c /ZI /nologo /W3 /WX- /Od /Oy- /D WIN32 /D _DEBUG /D _CONSOLE /D _UNICODE /D UNICODE /Gm /EHsc /RTC1 /MDd /GS /fp:precise /Zc:wchar_t /Zc:forScope /Zc:inline /Fo"DEBUG\\" /Fd"DEBUG\VC140.PDB" /Gd /TP /analyze- C:\USERS\Я\BIT_OPERATIONS\BITOPERATIONS\BITOPERATIONS\MENU.CPP
^C:\USERS\Я\BIT_OPERATIONS\BITOPERATIONS\BITOPERATIONS\NEGATION.CPP
/c /ZI /nologo /W3 /WX- /Od /Oy- /D WIN32 /D _DEBUG /D _CONSOLE /D _UNICODE /D UNICODE /Gm /EHsc /RTC1 /MDd /GS /fp:precise /Zc:wchar_t /Zc:forScope /Zc:inline /Fo"DEBUG\\" /Fd"DEBUG\VC140.PDB" /Gd /TP /analyze- C:\USERS\Я\BIT_OPERATIONS\BITOPERATIONS\BITOPERATIONS\NEGATION.CPP
^C:\USERS\Я\BIT_OPERATIONS\BITOPERATIONS\BITOPERATIONS\PROIZVEDENIE.CPP
/c /ZI /nologo /W3 /WX- /Od /Oy- /D WIN32 /D _DEBUG /D _CONSOLE /D _UNICODE /D UNICODE /Gm /EHsc /RTC1 /MDd /GS /fp:precise /Zc:wchar_t /Zc:forScope /Zc:inline /Fo"DEBUG\\" /Fd"DEBUG\VC140.PDB" /Gd /TP /analyze- C:\USERS\Я\BIT_OPERATIONS\BITOPERATIONS\BITOPERATIONS\PROIZVEDENIE.CPP
^C:\USERS\Я\BIT_OPERATIONS\BITOPERATIONS\BITOPERATIONS\SHIFT.CPP
/c /ZI /nologo /W3 /WX- /Od /Oy- /D WIN32 /D _DEBUG /D _CONSOLE /D _UNICODE /D UNICODE /Gm /EHsc /RTC1 /MDd /GS /fp:precise /Zc:wchar_t /Zc:forScope /Zc:inline /Fo"DEBUG\\" /Fd"DEBUG\VC140.PDB" /Gd /TP /analyze- C:\USERS\Я\BIT_OPERATIONS\BITOPERATIONS\BITOPERATIONS\SHIFT.CPP
^C:\USERS\Я\BIT_OPERATIONS\BITOPERATIONS\BITOPERATIONS\STDAFX.CPP
/c /ZI /nologo /W3 /WX- /Od /Oy- /D WIN32 /D _DEBUG /D _CONSOLE /D _UNICODE /D UNICODE /Gm /EHsc /RTC1 /MDd /GS /fp:precise /Zc:wchar_t /Zc:forScope /Zc:inline /Fo"DEBUG\\" /Fd"DEBUG\VC140.PDB" /Gd /TP /analyze- C:\USERS\Я\BIT_OPERATIONS\BITOPERATIONS\BITOPERATIONS\STDAFX.CPP
^C:\USERS\Я\BIT_OPERATIONS\BITOPERATIONS\BITOPERATIONS\SUMMA.CPP
/c /ZI /nologo /W3 /WX- /Od /Oy- /D WIN32 /D _DEBUG /D _CONSOLE /D _UNICODE /D UNICODE /Gm /EHsc /RTC1 /MDd /GS /fp:precise /Zc:wchar_t /Zc:forScope /Zc:inline /Fo"DEBUG\\" /Fd"DEBUG\VC140.PDB" /Gd /TP /analyze- C:\USERS\Я\BIT_OPERATIONS\BITOPERATIONS\BITOPERATIONS\SUMMA.CPP
^D:\STUDY\VVID\PROJECT\TESTCLONE\BIT_OPERATIONS\BITOPERATIONS\BITOPERATIONS\BITOPERATIONS.CPP
/c /ZI /nologo /W3 /WX- /Od /Oy- /D WIN32 /D _DEBUG /D _CONSOLE /D _UNICODE /D UNICODE /Gm /EHsc /RTC1 /MDd /GS /fp:precise /Zc:wchar_t /Zc:forScope /Zc:inline /Fo"DEBUG\\" /Fd"DEBUG\VC140.PDB" /Gd /TP /analyze- D:\STUDY\VVID\PROJECT\TESTCLONE\BIT_OPERATIONS\BITOPERATIONS\BITOPERATIONS\BITOPERATIONS.CPP
^D:\STUDY\VVID\PROJECT\TESTCLONE\BIT_OPERATIONS\BITOPERATIONS\BITOPERATIONS\DEGREE.CPP
/c /ZI /nologo /W3 /WX- /Od /Oy- /D WIN32 /D _DEBUG /D _CONSOLE /D _UNICODE /D UNICODE /Gm /EHsc /RTC1 /MDd /GS /fp:precise /Zc:wchar_t /Zc:forScope /Zc:inline /Fo"DEBUG\\" /Fd"DEBUG\VC140.PDB" /Gd /TP /analyze- D:\STUDY\VVID\PROJECT\TESTCLONE\BIT_OPERATIONS\BITOPERATIONS\BITOPERATIONS\DEGREE.CPP
^D:\STUDY\VVID\PROJECT\TESTCLONE\BIT_OPERATIONS\BITOPERATIONS\BITOPERATIONS\IS_NATURAL.CPP
/c /ZI /nologo /W3 /WX- /Od /Oy- /D WIN32 /D _DEBUG /D _CONSOLE /D _UNICODE /D UNICODE /Gm /EHsc /RTC1 /MDd /GS /fp:precise /Zc:wchar_t /Zc:forScope /Zc:inline /Fo"DEBUG\\" /Fd"DEBUG\VC140.PDB" /Gd /TP /analyze- D:\STUDY\VVID\PROJECT\TESTCLONE\BIT_OPERATIONS\BITOPERATIONS\BITOPERATIONS\IS_NATURAL.CPP
^D:\STUDY\VVID\PROJECT\TESTCLONE\BIT_OPERATIONS\BITOPERATIONS\BITOPERATIONS\MENU.CPP
/c /ZI /nologo /W3 /WX- /Od /Oy- /D WIN32 /D _DEBUG /D _CONSOLE /D _UNICODE /D UNICODE /Gm /EHsc /RTC1 /MDd /GS /fp:precise /Zc:wchar_t /Zc:forScope /Zc:inline /Fo"DEBUG\\" /Fd"DEBUG\VC140.PDB" /Gd /TP /analyze- D:\STUDY\VVID\PROJECT\TESTCLONE\BIT_OPERATIONS\BITOPERATIONS\BITOPERATIONS\MENU.CPP
^D:\STUDY\VVID\PROJECT\TESTCLONE\BIT_OPERATIONS\BITOPERATIONS\BITOPERATIONS\NEGATION.CPP
/c /ZI /nologo /W3 /WX- /Od /Oy- /D WIN32 /D _DEBUG /D _CONSOLE /D _UNICODE /D UNICODE /Gm /EHsc /RTC1 /MDd /GS /fp:precise /Zc:wchar_t /Zc:forScope /Zc:inline /Fo"DEBUG\\" /Fd"DEBUG\VC140.PDB" /Gd /TP /analyze- D:\STUDY\VVID\PROJECT\TESTCLONE\BIT_OPERATIONS\BITOPERATIONS\BITOPERATIONS\NEGATION.CPP
^D:\STUDY\VVID\PROJECT\TESTCLONE\BIT_OPERATIONS\BITOPERATIONS\BITOPERATIONS\PROIZVEDENIE.CPP
/c /ZI /nologo /W3 /WX- /Od /Oy- /D WIN32 /D _DEBUG /D _CONSOLE /D _UNICODE /D UNICODE /Gm /EHsc /RTC1 /MDd /GS /fp:precise /Zc:wchar_t /Zc:forScope /Zc:inline /Fo"DEBUG\\" /Fd"DEBUG\VC140.PDB" /Gd /TP /analyze- D:\STUDY\VVID\PROJECT\TESTCLONE\BIT_OPERATIONS\BITOPERATIONS\BITOPERATIONS\PROIZVEDENIE.CPP
^D:\STUDY\VVID\PROJECT\TESTCLONE\BIT_OPERATIONS\BITOPERATIONS\BITOPERATIONS\SHIFT.CPP
/c /ZI /nologo /W3 /WX- /Od /Oy- /D WIN32 /D _DEBUG /D _CONSOLE /D _UNICODE /D UNICODE /Gm /EHsc /RTC1 /MDd /GS /fp:precise /Zc:wchar_t /Zc:forScope /Zc:inline /Fo"DEBUG\\" /Fd"DEBUG\VC140.PDB" /Gd /TP /analyze- D:\STUDY\VVID\PROJECT\TESTCLONE\BIT_OPERATIONS\BITOPERATIONS\BITOPERATIONS\SHIFT.CPP
^D:\STUDY\VVID\PROJECT\TESTCLONE\BIT_OPERATIONS\BITOPERATIONS\BITOPERATIONS\STDAFX.CPP
/c /ZI /nologo /W3 /WX- /Od /Oy- /D WIN32 /D _DEBUG /D _CONSOLE /D _UNICODE /D UNICODE /Gm /EHsc /RTC1 /MDd /GS /fp:precise /Zc:wchar_t /Zc:forScope /Zc:inline /Fo"DEBUG\\" /Fd"DEBUG\VC140.PDB" /Gd /TP /analyze- D:\STUDY\VVID\PROJECT\TESTCLONE\BIT_OPERATIONS\BITOPERATIONS\BITOPERATIONS\STDAFX.CPP
^D:\STUDY\VVID\PROJECT\TESTCLONE\BIT_OPERATIONS\BITOPERATIONS\BITOPERATIONS\SUMMA.CPP
/c /ZI /nologo /W3 /WX- /Od /Oy- /D WIN32 /D _DEBUG /D _CONSOLE /D _UNICODE /D UNICODE /Gm /EHsc /RTC1 /MDd /GS /fp:precise /Zc:wchar_t /Zc:forScope /Zc:inline /Fo"DEBUG\\" /Fd"DEBUG\VC140.PDB" /Gd /TP /analyze- D:\STUDY\VVID\PROJECT\TESTCLONE\BIT_OPERATIONS\BITOPERATIONS\BITOPERATIONS\SUMMA.CPP
^D:\STUDY\VVID\PROJECT\TESTCLONE\BIT_OPERATIONS\BITOPERATIONS\BITOPERATIONS\XOR.CPP
/c /ZI /nologo /W3 /WX- /Od /Oy- /D WIN32 /D _DEBUG /D _CONSOLE /D _UNICODE /D UNICODE /Gm /EHsc /RTC1 /MDd /GS /fp:precise /Zc:wchar_t /Zc:forScope /Zc:inline /Fo"DEBUG\\" /Fd"DEBUG\VC140.PDB" /Gd /TP /analyze- D:\STUDY\VVID\PROJECT\TESTCLONE\BIT_OPERATIONS\BITOPERATIONS\BITOPERATIONS\XOR.CPP
^C:\USERS\VLADIMIR\DOCUMENTS\VISUAL STUDIO 2015\PROJECTS\BITOPERATIONS\BIT_OPERATIONS\BITOPERATIONS\BITOPERATIONS\DEGREE.CPP
/c /ZI /nologo /W3 /WX- /Od /Oy- /D WIN32 /D _DEBUG /D _CONSOLE /D _UNICODE /D UNICODE /Gm /EHsc /RTC1 /MDd /GS /fp:precise /Zc:wchar_t /Zc:forScope /Zc:inline /Fo"DEBUG\\" /Fd"DEBUG\VC140.PDB" /Gd /TP /analyze- C:\USERS\VLADIMIR\DOCUMENTS\VISUAL STUDIO 2015\PROJECTS\BITOPERATIONS\BIT_OPERATIONS\BITOPERATIONS\BITOPERATIONS\DEGREE.CPP
^C:\USERS\VLADIMIR\DOCUMENTS\VISUAL STUDIO 2015\PROJECTS\BITOPERATIONS\BIT_OPERATIONS\BITOPERATIONS\BITOPERATIONS\NEGATION.CPP
/c /ZI /nologo /W3 /WX- /Od /Oy- /D WIN32 /D _DEBUG /D _CONSOLE /D _UNICODE /D UNICODE /Gm /EHsc /RTC1 /MDd /GS /fp:precise /Zc:wchar_t /Zc:forScope /Zc:inline /Fo"DEBUG\\" /Fd"DEBUG\VC140.PDB" /Gd /TP /analyze- C:\USERS\VLADIMIR\DOCUMENTS\VISUAL STUDIO 2015\PROJECTS\BITOPERATIONS\BIT_OPERATIONS\BITOPERATIONS\BITOPERATIONS\NEGATION.CPP
^C:\USERS\VLADIMIR\DOCUMENTS\VISUAL STUDIO 2015\PROJECTS\BITOPERATIONS\BIT_OPERATIONS\BITOPERATIONS\BITOPERATIONS\SHIFT.CPP
/c /ZI /nologo /W3 /WX- /Od /Oy- /D WIN32 /D _DEBUG /D _CONSOLE /D _UNICODE /D UNICODE /Gm /EHsc /RTC1 /MDd /GS /fp:precise /Zc:wchar_t /Zc:forScope /Zc:inline /Fo"DEBUG\\" /Fd"DEBUG\VC140.PDB" /Gd /TP /analyze- C:\USERS\VLADIMIR\DOCUMENTS\VISUAL STUDIO 2015\PROJECTS\BITOPERATIONS\BIT_OPERATIONS\BITOPERATIONS\BITOPERATIONS\SHIFT.CPP
^C:\USERS\VLADIMIR\DOCUMENTS\VISUAL STUDIO 2015\PROJECTS\BITOPERATIONS\BIT_OPERATIONS\BITOPERATIONS\BITOPERATIONS\XOR.CPP
/c /ZI /nologo /W3 /WX- /Od /Oy- /D WIN32 /D _DEBUG /D _CONSOLE /D _UNICODE /D UNICODE /Gm /EHsc /RTC1 /MDd /GS /fp:precise /Zc:wchar_t /Zc:forScope /Zc:inline /Fo"DEBUG\\" /Fd"DEBUG\VC140.PDB" /Gd /TP /analyze- C:\USERS\VLADIMIR\DOCUMENTS\VISUAL STUDIO 2015\PROJECTS\BITOPERATIONS\BIT_OPERATIONS\BITOPERATIONS\BITOPERATIONS\XOR.CPP
^C:\USERS\VLADIMIR\DOCUMENTS\VISUAL STUDIO 2015\PROJECTS\BITOPERATIONS\BIT_OPERATIONS\BITOPERATIONS\BITOPERATIONS\CHECK.CPP
/c /ZI /nologo /W3 /WX- /Od /Oy- /D WIN32 /D _DEBUG /D _CONSOLE /D _UNICODE /D UNICODE /Gm /EHsc /RTC1 /MDd /GS /fp:precise /Zc:wchar_t /Zc:forScope /Zc:inline /Fo"DEBUG\\" /Fd"DEBUG\VC140.PDB" /Gd /TP /analyze- C:\USERS\VLADIMIR\DOCUMENTS\VISUAL STUDIO 2015\PROJECTS\BITOPERATIONS\BIT_OPERATIONS\BITOPERATIONS\BITOPERATIONS\CHECK.CPP
^C:\USERS\Я\BIT_OPERATIONS\BIT_OPERATIONS\BITOPERATIONS\BITOPERATIONS\BITOPERATIONS.CPP
/c /ZI /nologo /W3 /WX- /Od /Oy- /D WIN32 /D _DEBUG /D _CONSOLE /D _UNICODE /D UNICODE /Gm /EHsc /RTC1 /MDd /GS /fp:precise /Zc:wchar_t /Zc:forScope /Zc:inline /Fo"DEBUG\\" /Fd"DEBUG\VC140.PDB" /Gd /TP /analyze- C:\USERS\Я\BIT_OPERATIONS\BIT_OPERATIONS\BITOPERATIONS\BITOPERATIONS\BITOPERATIONS.CPP
^C:\USERS\Я\BIT_OPERATIONS\BIT_OPERATIONS\BITOPERATIONS\BITOPERATIONS\CHECK.CPP
/c /ZI /nologo /W3 /WX- /Od /Oy- /D WIN32 /D _DEBUG /D _CONSOLE /D _UNICODE /D UNICODE /Gm /EHsc /RTC1 /MDd /GS /fp:precise /Zc:wchar_t /Zc:forScope /Zc:inline /Fo"DEBUG\\" /Fd"DEBUG\VC140.PDB" /Gd /TP /analyze- C:\USERS\Я\BIT_OPERATIONS\BIT_OPERATIONS\BITOPERATIONS\BITOPERATIONS\CHECK.CPP
^C:\USERS\Я\BIT_OPERATIONS\BIT_OPERATIONS\BITOPERATIONS\BITOPERATIONS\DEGREE.CPP
/c /ZI /nologo /W3 /WX- /Od /Oy- /D WIN32 /D _DEBUG /D _CONSOLE /D _UNICODE /D UNICODE /Gm /EHsc /RTC1 /MDd /GS /fp:precise /Zc:wchar_t /Zc:forScope /Zc:inline /Fo"DEBUG\\" /Fd"DEBUG\VC140.PDB" /Gd /TP /analyze- C:\USERS\Я\BIT_OPERATIONS\BIT_OPERATIONS\BITOPERATIONS\BITOPERATIONS\DEGREE.CPP
^C:\USERS\Я\BIT_OPERATIONS\BIT_OPERATIONS\BITOPERATIONS\BITOPERATIONS\IS_NATURAL.CPP
/c /ZI /nologo /W3 /WX- /Od /Oy- /D WIN32 /D _DEBUG /D _CONSOLE /D _UNICODE /D UNICODE /Gm /EHsc /RTC1 /MDd /GS /fp:precise /Zc:wchar_t /Zc:forScope /Zc:inline /Fo"DEBUG\\" /Fd"DEBUG\VC140.PDB" /Gd /TP /analyze- C:\USERS\Я\BIT_OPERATIONS\BIT_OPERATIONS\BITOPERATIONS\BITOPERATIONS\IS_NATURAL.CPP
^C:\USERS\Я\BIT_OPERATIONS\BIT_OPERATIONS\BITOPERATIONS\BITOPERATIONS\MENU.CPP
/c /ZI /nologo /W3 /WX- /Od /Oy- /D WIN32 /D _DEBUG /D _CONSOLE /D _UNICODE /D UNICODE /Gm /EHsc /RTC1 /MDd /GS /fp:precise /Zc:wchar_t /Zc:forScope /Zc:inline /Fo"DEBUG\\" /Fd"DEBUG\VC140.PDB" /Gd /TP /analyze- C:\USERS\Я\BIT_OPERATIONS\BIT_OPERATIONS\BITOPERATIONS\BITOPERATIONS\MENU.CPP
^C:\USERS\Я\BIT_OPERATIONS\BIT_OPERATIONS\BITOPERATIONS\BITOPERATIONS\NEGATION.CPP
/c /ZI /nologo /W3 /WX- /Od /Oy- /D WIN32 /D _DEBUG /D _CONSOLE /D _UNICODE /D UNICODE /Gm /EHsc /RTC1 /MDd /GS /fp:precise /Zc:wchar_t /Zc:forScope /Zc:inline /Fo"DEBUG\\" /Fd"DEBUG\VC140.PDB" /Gd /TP /analyze- C:\USERS\Я\BIT_OPERATIONS\BIT_OPERATIONS\BITOPERATIONS\BITOPERATIONS\NEGATION.CPP
^C:\USERS\Я\BIT_OPERATIONS\BIT_OPERATIONS\BITOPERATIONS\BITOPERATIONS\PROIZVEDENIE.CPP
/c /ZI /nologo /W3 /WX- /Od /Oy- /D WIN32 /D _DEBUG /D _CONSOLE /D _UNICODE /D UNICODE /Gm /EHsc /RTC1 /MDd /GS /fp:precise /Zc:wchar_t /Zc:forScope /Zc:inline /Fo"DEBUG\\" /Fd"DEBUG\VC140.PDB" /Gd /TP /analyze- C:\USERS\Я\BIT_OPERATIONS\BIT_OPERATIONS\BITOPERATIONS\BITOPERATIONS\PROIZVEDENIE.CPP
^C:\USERS\Я\BIT_OPERATIONS\BIT_OPERATIONS\BITOPERATIONS\BITOPERATIONS\SHIFT.CPP
/c /ZI /nologo /W3 /WX- /Od /Oy- /D WIN32 /D _DEBUG /D _CONSOLE /D _UNICODE /D UNICODE /Gm /EHsc /RTC1 /MDd /GS /fp:precise /Zc:wchar_t /Zc:forScope /Zc:inline /Fo"DEBUG\\" /Fd"DEBUG\VC140.PDB" /Gd /TP /analyze- C:\USERS\Я\BIT_OPERATIONS\BIT_OPERATIONS\BITOPERATIONS\BITOPERATIONS\SHIFT.CPP
^C:\USERS\Я\BIT_OPERATIONS\BIT_OPERATIONS\BITOPERATIONS\BITOPERATIONS\SHIFT1.CPP
/c /ZI /nologo /W3 /WX- /Od /Oy- /D WIN32 /D _DEBUG /D _CONSOLE /D _UNICODE /D UNICODE /Gm /EHsc /RTC1 /MDd /GS /fp:precise /Zc:wchar_t /Zc:forScope /Zc:inline /Fo"DEBUG\\" /Fd"DEBUG\VC140.PDB" /Gd /TP /analyze- C:\USERS\Я\BIT_OPERATIONS\BIT_OPERATIONS\BITOPERATIONS\BITOPERATIONS\SHIFT1.CPP
^C:\USERS\Я\BIT_OPERATIONS\BIT_OPERATIONS\BITOPERATIONS\BITOPERATIONS\STDAFX.CPP
/c /ZI /nologo /W3 /WX- /Od /Oy- /D WIN32 /D _DEBUG /D _CONSOLE /D _UNICODE /D UNICODE /Gm /EHsc /RTC1 /MDd /GS /fp:precise /Zc:wchar_t /Zc:forScope /Zc:inline /Fo"DEBUG\\" /Fd"DEBUG\VC140.PDB" /Gd /TP /analyze- C:\USERS\Я\BIT_OPERATIONS\BIT_OPERATIONS\BITOPERATIONS\BITOPERATIONS\STDAFX.CPP
^C:\USERS\Я\BIT_OPERATIONS\BIT_OPERATIONS\BITOPERATIONS\BITOPERATIONS\SUMMA.CPP
/c /ZI /nologo /W3 /WX- /Od /Oy- /D WIN32 /D _DEBUG /D _CONSOLE /D _UNICODE /D UNICODE /Gm /EHsc /RTC1 /MDd /GS /fp:precise /Zc:wchar_t /Zc:forScope /Zc:inline /Fo"DEBUG\\" /Fd"DEBUG\VC140.PDB" /Gd /TP /analyze- C:\USERS\Я\BIT_OPERATIONS\BIT_OPERATIONS\BITOPERATIONS\BITOPERATIONS\SUMMA.CPP
^C:\USERS\Я\BIT_OPERATIONS\BIT_OPERATIONS\BITOPERATIONS\BITOPERATIONS\XOR.CPP
/c /ZI /nologo /W3 /WX- /Od /Oy- /D WIN32 /D _DEBUG /D _CONSOLE /D _UNICODE /D UNICODE /Gm /EHsc /RTC1 /MDd /GS /fp:precise /Zc:wchar_t /Zc:forScope /Zc:inline /Fo"DEBUG\\" /Fd"DEBUG\VC140.PDB" /Gd /TP /analyze- C:\USERS\Я\BIT_OPERATIONS\BIT_OPERATIONS\BITOPERATIONS\BITOPERATIONS\XOR.CPP
^D:\STUDY\VVID\PROJECT\BIT_OPERATIONS\BITOPERATIONS\BITOPERATIONS\BITOPERATIONS.CPP
/c /ZI /nologo /W3 /WX- /Od /Oy- /D WIN32 /D _DEBUG /D _CONSOLE /D _UNICODE /D UNICODE /Gm /EHsc /RTC1 /MDd /GS /fp:precise /Zc:wchar_t /Zc:forScope /Zc:inline /Fo"DEBUG\\" /Fd"DEBUG\VC140.PDB" /Gd /TP /analyze- D:\STUDY\VVID\PROJECT\BIT_OPERATIONS\BITOPERATIONS\BITOPERATIONS\BITOPERATIONS.CPP
^D:\STUDY\VVID\PROJECT\BIT_OPERATIONS\BITOPERATIONS\BITOPERATIONS\CHECK.CPP
/c /ZI /nologo /W3 /WX- /Od /Oy- /D WIN32 /D _DEBUG /D _CONSOLE /D _UNICODE /D UNICODE /Gm /EHsc /RTC1 /MDd /GS /fp:precise /Zc:wchar_t /Zc:forScope /Zc:inline /Fo"DEBUG\\" /Fd"DEBUG\VC140.PDB" /Gd /TP /analyze- D:\STUDY\VVID\PROJECT\BIT_OPERATIONS\BITOPERATIONS\BITOPERATIONS\CHECK.CPP
^D:\STUDY\VVID\PROJECT\BIT_OPERATIONS\BITOPERATIONS\BITOPERATIONS\DEGREE.CPP
/c /ZI /nologo /W3 /WX- /Od /Oy- /D WIN32 /D _DEBUG /D _CONSOLE /D _UNICODE /D UNICODE /Gm /EHsc /RTC1 /MDd /GS /fp:precise /Zc:wchar_t /Zc:forScope /Zc:inline /Fo"DEBUG\\" /Fd"DEBUG\VC140.PDB" /Gd /TP /analyze- D:\STUDY\VVID\PROJECT\BIT_OPERATIONS\BITOPERATIONS\BITOPERATIONS\DEGREE.CPP
^D:\STUDY\VVID\PROJECT\BIT_OPERATIONS\BITOPERATIONS\BITOPERATIONS\IS_NATURAL.CPP
/c /ZI /nologo /W3 /WX- /Od /Oy- /D WIN32 /D _DEBUG /D _CONSOLE /D _UNICODE /D UNICODE /Gm /EHsc /RTC1 /MDd /GS /fp:precise /Zc:wchar_t /Zc:forScope /Zc:inline /Fo"DEBUG\\" /Fd"DEBUG\VC140.PDB" /Gd /TP /analyze- D:\STUDY\VVID\PROJECT\BIT_OPERATIONS\BITOPERATIONS\BITOPERATIONS\IS_NATURAL.CPP
^D:\STUDY\VVID\PROJECT\BIT_OPERATIONS\BITOPERATIONS\BITOPERATIONS\LIGHTS.CPP
/c /ZI /nologo /W3 /WX- /Od /Oy- /D WIN32 /D _DEBUG /D _CONSOLE /D _UNICODE /D UNICODE /Gm /EHsc /RTC1 /MDd /GS /fp:precise /Zc:wchar_t /Zc:forScope /Zc:inline /Fo"DEBUG\\" /Fd"DEBUG\VC140.PDB" /Gd /TP /analyze- D:\STUDY\VVID\PROJECT\BIT_OPERATIONS\BITOPERATIONS\BITOPERATIONS\LIGHTS.CPP
^D:\STUDY\VVID\PROJECT\BIT_OPERATIONS\BITOPERATIONS\BITOPERATIONS\MENU.CPP
/c /ZI /nologo /W3 /WX- /Od /Oy- /D WIN32 /D _DEBUG /D _CONSOLE /D _UNICODE /D UNICODE /Gm /EHsc /RTC1 /MDd /GS /fp:precise /Zc:wchar_t /Zc:forScope /Zc:inline /Fo"DEBUG\\" /Fd"DEBUG\VC140.PDB" /Gd /TP /analyze- D:\STUDY\VVID\PROJECT\BIT_OPERATIONS\BITOPERATIONS\BITOPERATIONS\MENU.CPP
^D:\STUDY\VVID\PROJECT\BIT_OPERATIONS\BITOPERATIONS\BITOPERATIONS\NEGATION.CPP
/c /ZI /nologo /W3 /WX- /Od /Oy- /D WIN32 /D _DEBUG /D _CONSOLE /D _UNICODE /D UNICODE /Gm /EHsc /RTC1 /MDd /GS /fp:precise /Zc:wchar_t /Zc:forScope /Zc:inline /Fo"DEBUG\\" /Fd"DEBUG\VC140.PDB" /Gd /TP /analyze- D:\STUDY\VVID\PROJECT\BIT_OPERATIONS\BITOPERATIONS\BITOPERATIONS\NEGATION.CPP
^D:\STUDY\VVID\PROJECT\BIT_OPERATIONS\BITOPERATIONS\BITOPERATIONS\PROIZVEDENIE.CPP
/c /ZI /nologo /W3 /WX- /Od /Oy- /D WIN32 /D _DEBUG /D _CONSOLE /D _UNICODE /D UNICODE /Gm /EHsc /RTC1 /MDd /GS /fp:precise /Zc:wchar_t /Zc:forScope /Zc:inline /Fo"DEBUG\\" /Fd"DEBUG\VC140.PDB" /Gd /TP /analyze- D:\STUDY\VVID\PROJECT\BIT_OPERATIONS\BITOPERATIONS\BITOPERATIONS\PROIZVEDENIE.CPP
^D:\STUDY\VVID\PROJECT\BIT_OPERATIONS\BITOPERATIONS\BITOPERATIONS\SHIFT.CPP
/c /ZI /nologo /W3 /WX- /Od /Oy- /D WIN32 /D _DEBUG /D _CONSOLE /D _UNICODE /D UNICODE /Gm /EHsc /RTC1 /MDd /GS /fp:precise /Zc:wchar_t /Zc:forScope /Zc:inline /Fo"DEBUG\\" /Fd"DEBUG\VC140.PDB" /Gd /TP /analyze- D:\STUDY\VVID\PROJECT\BIT_OPERATIONS\BITOPERATIONS\BITOPERATIONS\SHIFT.CPP
^D:\STUDY\VVID\PROJECT\BIT_OPERATIONS\BITOPERATIONS\BITOPERATIONS\SHIFT1.CPP
/c /ZI /nologo /W3 /WX- /Od /Oy- /D WIN32 /D _DEBUG /D _CONSOLE /D _UNICODE /D UNICODE /Gm /EHsc /RTC1 /MDd /GS /fp:precise /Zc:wchar_t /Zc:forScope /Zc:inline /Fo"DEBUG\\" /Fd"DEBUG\VC140.PDB" /Gd /TP /analyze- D:\STUDY\VVID\PROJECT\BIT_OPERATIONS\BITOPERATIONS\BITOPERATIONS\SHIFT1.CPP
^D:\STUDY\VVID\PROJECT\BIT_OPERATIONS\BITOPERATIONS\BITOPERATIONS\STDAFX.CPP
/c /ZI /nologo /W3 /WX- /Od /Oy- /D WIN32 /D _DEBUG /D _CONSOLE /D _UNICODE /D UNICODE /Gm /EHsc /RTC1 /MDd /GS /fp:precise /Zc:wchar_t /Zc:forScope /Zc:inline /Fo"DEBUG\\" /Fd"DEBUG\VC140.PDB" /Gd /TP /analyze- D:\STUDY\VVID\PROJECT\BIT_OPERATIONS\BITOPERATIONS\BITOPERATIONS\STDAFX.CPP
^D:\STUDY\VVID\PROJECT\BIT_OPERATIONS\BITOPERATIONS\BITOPERATIONS\SUMMA.CPP
/c /ZI /nologo /W3 /WX- /Od /Oy- /D WIN32 /D _DEBUG /D _CONSOLE /D _UNICODE /D UNICODE /Gm /EHsc /RTC1 /MDd /GS /fp:precise /Zc:wchar_t /Zc:forScope /Zc:inline /Fo"DEBUG\\" /Fd"DEBUG\VC140.PDB" /Gd /TP /analyze- D:\STUDY\VVID\PROJECT\BIT_OPERATIONS\BITOPERATIONS\BITOPERATIONS\SUMMA.CPP
^D:\STUDY\VVID\PROJECT\BIT_OPERATIONS\BITOPERATIONS\BITOPERATIONS\XOR.CPP
/c /ZI /nologo /W3 /WX- /Od /Oy- /D WIN32 /D _DEBUG /D _CONSOLE /D _UNICODE /D UNICODE /Gm /EHsc /RTC1 /MDd /GS /fp:precise /Zc:wchar_t /Zc:forScope /Zc:inline /Fo"DEBUG\\" /Fd"DEBUG\VC140.PDB" /Gd /TP /analyze- D:\STUDY\VVID\PROJECT\BIT_OPERATIONS\BITOPERATIONS\BITOPERATIONS\XOR.CPP
